; RUN: llc -filetype=obj -mtriple=wasm32-unknown-uknown-wasm %p/Inputs/hello.ll -o %t.hello.o
; RUN: llc -filetype=obj -mtriple=wasm32-unknown-uknown-wasm %s -o %t.o
; RUN: lld -flavor wasm --emit-relocs --allow-undefined --no-entry -o %t.wasm %t.o %t.hello.o
; RUN: obj2yaml %t.wasm | FileCheck %s

@foo = hidden global i32 1, align 4
@aligned_bar = hidden global i32 3, align 16

@hello_str = external global i8*
@external_ref = global i8** @hello_str, align 8

; CHECK:        - Type:            GLOBAL
; CHECK-NEXT:     Globals:
; CHECK-NEXT:       - Type:            I32
; CHECK-NEXT:         Mutable:         true
; CHECK-NEXT:         InitExpr:        
; CHECK-NEXT:           Opcode:          I32_CONST
; CHECK-NEXT:           Value:           66608
; CHECK-NEXT:       - Type:            I32
; CHECK-NEXT:         Mutable:         false
; CHECK-NEXT:         InitExpr:
; CHECK-NEXT:           Opcode:          I32_CONST
; CHECK-NEXT:           Value:           1052
; CHECK-NEXT:       - Type:            I32
; CHECK-NEXT:         Mutable:         false
; CHECK-NEXT:         InitExpr:
; CHECK-NEXT:           Opcode:          I32_CONST
; CHECK-NEXT:           Value:           1024
; CHECK-NEXT:       - Type:            I32
; CHECK-NEXT:         Mutable:         false
; CHECK-NEXT:         InitExpr:
; CHECK-NEXT:           Opcode:          I32_CONST
; CHECK-NEXT:           Value:           1040
; CHECK-NEXT:       - Type:            I32
; CHECK-NEXT:         Mutable:         false
; CHECK-NEXT:         InitExpr:
; CHECK-NEXT:           Opcode:          I32_CONST
; CHECK-NEXT:           Value:           1048

; CHECK:       - Type:            DATA
; CHECK-NEXT:     Relocations:
; CHECK-NEXT:       - Type:            R_WEBASSEMBLY_MEMORY_ADDR_I32
; CHECK-NEXT:         Index:           1
; CHECK-NEXT:         Offset:          0x0000001F
; CHECK-NEXT:     Segments:
; CHECK-NEXT:       - SectionOffset:   7
; CHECK-NEXT:         MemoryIndex:     0
; CHECK-NEXT:         Offset:
; CHECK-NEXT:           Opcode:          I32_CONST
; CHECK-NEXT:           Value:           1024
; CHECK-NEXT:         Content:         0100000000000000000000000000000003000000000000001C040000
; CHECK-NEXT:       - SectionOffset:   41
; CHECK-NEXT:         MemoryIndex:     0
; CHECK-NEXT:         Offset:
; CHECK-NEXT:           Opcode:          I32_CONST
; CHECK-NEXT:           Value:           1052
; CHECK-NEXT:         Content:         68656C6C6F0A00

; CHECK:       - Type:            CUSTOM
; CHECK-NEXT:     Name:            linking
; CHECK-NEXT:     DataSize:        35
